<dependency>
            <groupId>org.apache.pdfbox</groupId>
            <artifactId>pdfbox</artifactId>
            <version>1.8.3</version>
        </dependency>
        
        <dependency>
            <groupId>org.json</groupId>
            <artifactId>json</artifactId>
            <version>20170516</version>
            <scope>compile</scope>
        </dependency>
        
        <dependency>
            <groupId>com.google.code.gson</groupId>
            <artifactId>gson</artifactId>
            <version>2.4</version>
        </dependency>
        <dependency>
            <groupId>commons-codec</groupId>
            <artifactId>commons-codec</artifactId>
            <version>1.10</version>
            <type>jar</type>
        </dependency>
        <dependency>
            <groupId>org.glassfish</groupId>
            <artifactId>javax.faces</artifactId>
            <version>2.2.7</version>
        </dependency>
        <dependency>
            <groupId>org.hibernate</groupId>
            <artifactId>hibernate-entitymanager</artifactId>
            <version>4.3.1.Final</version>
        </dependency>
        <dependency>
            <groupId>mysql</groupId>
            <artifactId>mysql-connector-java</artifactId>
            <version>5.1.36</version>
        </dependency>
        <dependency>
            <groupId>jstl</groupId>
            <artifactId>jstl</artifactId>
            <version>1.2</version>
        </dependency>
        <dependency>
            <groupId>org.primefaces</groupId>
            <artifactId>primefaces</artifactId>
            <version>5.3</version>
        </dependency>
        <dependency>
            <groupId>commons-fileupload</groupId>
            <artifactId>commons-fileupload</artifactId>
            <version>1.3.1</version>
        </dependency>
        <dependency>
            <groupId>commons-io</groupId>
            <artifactId>commons-io</artifactId>
            <version>2.4</version>
        </dependency>
        <dependency>
            <groupId>net.sf.jasperreports</groupId>
            <artifactId>jasperreports</artifactId>
            <version>4.1.1</version>
            <type>jar</type>
        </dependency>
        <dependency>
            <groupId>net.sf.jasperreports</groupId>
            <artifactId>jasperreports-fonts</artifactId>
            <version>4.0.0</version>
        </dependency>
        <dependency>
            <groupId>javax.mail</groupId>
            <artifactId>mail</artifactId>
            <version>1.4.1</version>
        </dependency>
        <dependency>
            <groupId>com.sun.mail</groupId>
            <artifactId>smtp</artifactId>
            <version>1.5.5</version>
        </dependency>
        <dependency>
            <groupId>com.sun.mail</groupId>
            <artifactId>pop3</artifactId>
            <version>1.5.5</version>
        </dependency>
        <dependency>
            <groupId>com.sun.mail</groupId>
            <artifactId>imap</artifactId>
            <version>1.5.5</version>
        </dependency>
        <dependency>
            <groupId>org.hibernate.javax.persistence</groupId>
            <artifactId>hibernate-jpa-2.1-api</artifactId>
            <version>1.0.0.Final</version>
        </dependency>
        <dependency>
            <groupId>javax</groupId>
            <artifactId>javaee-web-api</artifactId>
            <version>6.0</version>
            <scope>provided</scope>
        </dependency>
        <dependency>
            <groupId>asm</groupId>
            <artifactId>asm-commons</artifactId>
            <version>3.2</version>
        </dependency>
        <dependency>
            <groupId>javax.servlet</groupId>
            <artifactId>servlet-api</artifactId>
            <version>2.5</version>
        </dependency>
        <dependency>
            <groupId>com.itextpdf</groupId>
            <artifactId>itextpdf</artifactId>
            <version>5.5.7</version>
        </dependency>
        
        <!-- https://mvnrepository.com/artifact/org.atmosphere/atmosphere-runtime -->
        <dependency>
            <groupId>org.atmosphere</groupId>
            <artifactId>atmosphere-runtime</artifactId>
            <version>2.4.3</version>
        </dependency>
        <dependency>
            <groupId>org.atmosphere</groupId>
            <artifactId>atmosphere-runtime-native</artifactId>
            <version>2.4.3</version>
        </dependency>